e-Stat API for R • estatapi
…
estat_getMetaInfo

Get meta-information about the data.

This function returns a list of tbl_df. Each tbl_df contains the meta-info for the correspondent column.

meta_info <- estat_getMetaInfo(appId = appId, lang = "E", statsDataId = "0003036792")

names(meta_info)
#> [1] "tab"    "cat01"  "area"   "time"   ".names"

meta_info$cat01
#> # A tibble: 798 x 4
#>    `@code` `@name`                                        `@level` `@parentCode`
#>  * <chr>   <chr>                                          <chr>    <chr>        
#>  1 0001    "All items"                                    1        <NA>         
#>  2 0002    "Food"                                         1        <NA>         
#>  3 0003    "Cereals"                                      3        0002         
#>  4 0004    "Rice"                                         5        0003         
#>  5 1000    "Non-glutinous rice"                           6        0004         
#>  6 1001    "Rice-A(domestic), \"Koshihikari\""            7        1000         
#>  7 1002    "Rice-B(domestic), non-blended rice excluding… 7        1000         
#>  8 1011    "Glutinous rice"                               6        0004         
#>  9 0005    "Bread"                                        5        0003         
#> 10 1021    "White bread"                                  6        0005         
#> # … with 788 more rows

estat_getStatsData

Get statistics.

Though only appId and statsDataId are required, I recommend you to use additional condition to save time.

estat_getStatsData(
  appId = appId,
  lang = "E",
  statsDataId = "0003036792",
  cdCat01 = c("0005","1021")
)
#> Fetching record 1-8228... (total: 8228 records)
#> # A tibble: 8,228 x 11
#>    tab_code `Tabulated vari… cat01_code Items area_code AREA  time_code Time 
#>  * <chr>    <chr>            <chr>      <chr> <chr>     <chr> <chr>     <chr>
#>  1 1        Index            0005       Bread 13A01     Ku-a… 20160012… Dec.…
#>  2 1        Index            0005       Bread 13A01     Ku-a… 20160011… Nov.…
#>  3 1        Index            0005       Bread 13A01     Ku-a… 20160010… Oct.…
#>  4 1        Index            0005       Bread 13A01     Ku-a… 20160009… Sep.…
#>  5 1        Index            0005       Bread 13A01     Ku-a… 20160008… Aug.…
#>  6 1        Index            0005       Bread 13A01     Ku-a… 20160007… Jul.…
#>  7 1        Index            0005       Bread 13A01     Ku-a… 20160006… Jun.…
#>  8 1        Index            0005       Bread 13A01     Ku-a… 20160005… May …
#>  9 1        Index            0005       Bread 13A01     Ku-a… 20160004… Apr.…
#> 10 1        Index            0005       Bread 13A01     Ku-a… 20160003… Mar.…
#> # … with 8,218 more rows, and 3 more variables: unit <chr>, value <dbl>,
#> #   annotation <chr>
…
