…
### estat\_getMetaInfo

Get meta-information about the data.

This function returns a list of `tbl_df`. Each `tbl_df` contains the meta-info for the correspondent column.

``` r
meta_info <- estat_getMetaInfo(appId = appId, lang = "E", statsDataId = "0003036792")

names(meta_info)
#> [1] "tab"    "cat01"  "area"   "time"   ".names"

meta_info$cat01
#> # A tibble: 798 x 4
#>    @code                                                      @name @level
#>    <chr>                                                      <chr>  <chr>
#> 1   0001                                                  All items      1
#> 2   0002                                                       Food      1
#> 3   0003                                                    Cereals      3
#> 4   0004                                                       Rice      5
#> 5   1000                                         Non-glutinous rice      6
#> 6   1001                            Rice-A(domestic), "Koshihikari"      7
#> 7   1002 Rice-B(domestic), non-blended rice excluding "Koshihikari"      7
#> 8   1011                                             Glutinous rice      6
#> 9   0005                                                      Bread      5
#> 10  1021                                                White bread      6
#> # ... with 788 more rows, and 1 more variables: @parentCode <chr>
```
### estat\_getStatsData

Get statistics.

Though only `appId` and `statsDataId` are required, I recommend you to use additional condition to save time.

``` r
estat_getStatsData(
  appId = appId,
  lang = "E",
  statsDataId = "0003036792",
  cdCat01 = c("0005","1021")
)
#> Fetching record 1-8102... (total: 8102 records)
#> # A tibble: 8,102 x 10
#>    tab_code Tabulated variable cat01_code Items area_code    AREA
#>       <chr>              <chr>      <chr> <chr>     <chr>   <chr>
#> 1         1              Index       0005 Bread     13A01 Ku-area
#> 2         1              Index       0005 Bread     13A01 Ku-area
#> 3         1              Index       0005 Bread     13A01 Ku-area
#> 4         1              Index       0005 Bread     13A01 Ku-area
#> 5         1              Index       0005 Bread     13A01 Ku-area
#> 6         1              Index       0005 Bread     13A01 Ku-area
#> 7         1              Index       0005 Bread     13A01 Ku-area
#> 8         1              Index       0005 Bread     13A01 Ku-area
#> 9         1              Index       0005 Bread     13A01 Ku-area
#> 10        1              Index       0005 Bread     13A01 Ku-area
#> # ... with 8,092 more rows, and 4 more variables: time_code <chr>,
#> #   Time <chr>, value <dbl>, unit <chr>
```
…
