R Interface to e-Stat API • estatapi
…
データカタログ情報取得: 統計表ファイル（Excel、CSV、PDF）および統計データベースの情報を取得します。

 統計表情報取得（estat_getStatsList()）

提供されている統計表を検索します。この関数は、結果をtbl_df（dplyrのdata.frame。data.frameとほぼ同じように扱える）として返します。

例えば、「チョコレート」というキーワードを含む統計を検索するときはsearchWordという引数にキーワードを指定して、以下のようにします。

appId <- "XXXXXXXXX"

library(estatapi)

estat_getStatsList(appId = appId, searchWord = "チョコレート")
#> # A tibble: 191 × 13
#>         `@id`        STAT_NAME    GOV_ORG
#>         <chr>            <chr>      <chr>
#> 1  0000100087 全国物価統計調査     総務省
#> 2  0000100104 全国物価統計調査     総務省
#> 3  0000100125 全国物価統計調査     総務省
#> 4  0000100126 全国物価統計調査     総務省
#> 5  0000100127 全国物価統計調査     総務省
#> 6  0000100128 全国物価統計調査     総務省
#> 7  0000100129 全国物価統計調査     総務省
#> 8  0000100130 全国物価統計調査     総務省
#> 9  0003126524     工業統計調査 経済産業省
#> 10 0003143784     工業統計調査 経済産業省
#> # ... with 181 more rows, and 10 more variables: STATISTICS_NAME <chr>,
#> #   TITLE <chr>, CYCLE <chr>, SURVEY_DATE <chr>, OPEN_DATE <chr>,
#> #   SMALL_AREA <chr>, MAIN_CATEGORY <chr>, SUB_CATEGORY <chr>,
#> #   OVERALL_TOTAL_NUMBER <chr>, UPDATED_DATE <chr>

ここで、STAT_NAMEやGOV_ORGは人間が読みやすい形式のラベルになっていますが、 プログラム中で扱う場合はコードのままの方が都合がいいこともあります。そのときは.use_label = FALSEを指定してください。

estat_getStatsList(appId = appId, searchWord = "チョコレート", .use_label = FALSE)
#> # A tibble: 191 × 13
#>         `@id` STAT_NAME GOV_ORG
#>         <chr>     <chr>   <chr>
#> 1  0000100087  00200572   00200
#> 2  0000100104  00200572   00200
#> 3  0000100125  00200572   00200
#> 4  0000100126  00200572   00200
#> 5  0000100127  00200572   00200
#> 6  0000100128  00200572   00200
#> 7  0000100129  00200572   00200
#> 8  0000100130  00200572   00200
#> 9  0003126524  00550010   00550
#> 10 0003143784  00550010   00550
#> # ... with 181 more rows, and 10 more variables: STATISTICS_NAME <chr>,
#> #   TITLE <chr>, CYCLE <chr>, SURVEY_DATE <chr>, OPEN_DATE <chr>,
#> #   SMALL_AREA <chr>, MAIN_CATEGORY <chr>, SUB_CATEGORY <chr>,
#> #   OVERALL_TOTAL_NUMBER <chr>, UPDATED_DATE <chr>

 メタ情報取得（estat_getMetaInfo()）

統計データのメタ情報を取得します。この関数は、結果をlistとして返します。listの各要素が、それぞれのデータ項目についてのメタ情報を含んだtbl_dfになっています。

例えば、0003103532というIDの統計に関するメタ情報を取得するには、statsDataIdという引数にIDを指定して、以下のようにします。

meta_info <- estat_getMetaInfo(appId = appId, statsDataId = "0003103532")

names(meta_info)
#> [1] "tab"    "cat01"  "cat02"  "area"   "time"   ".names"

meta_info$cat01
#> # A tibble: 703 × 5
#>      `@code`                            `@name` `@level`  `@unit`
#>        <chr>                              <chr>    <chr>    <chr>
#> 1  000100000           世帯数分布（抽出率調整）        1 一万分比
#> 2  000200000                         集計世帯数        1     世帯
#> 3  000300000                           世帯人員        1       人
#> 4  000400000                       18歳未満人員        2       人
#> 5  000500000                       65歳以上人員        2       人
#> 6  000600000                 65歳以上無職者人員        3       人
#> 7  000700000                           有業人員        1       人
#> 8  000800000                       世帯主の年齢        1       歳
#> 9  000900000                             持家率        1       ％
#> 10 001000000 家賃・地代を支払っている世帯の割合        1       ％
#> # ... with 693 more rows, and 1 more variables: `@parentCode` <chr>

 統計データ取得（estat_getStatsData()）

統計データを取得します。この関数は、結果をメタ情報と紐づけてtbl_dfとして返します。

必ず指定しなくてはいけないのはappIdとstatsDataIdだけですが、それだけだとデータがかなり大きくなって取得に時間がかかります。cdCat01（分類事項01）などを指定して必要な項目だけに絞ることをおすすめします。他に絞り込みに指定できるパラメータについては公式ドキュメントを参照してください。

estat_getStatsData(
  appId = appId,
  statsDataId = "0003103532",
  cdCat01 = c("010800130","010800140")
)
#> Fetching record 1-13520... (total: 13520 records)
#> # A tibble: 13,520 × 12
#>    tab_code 表章項目 cat01_code `品目分類（27年改定）` cat02_code
#>       <chr>    <chr>      <chr>                  <chr>      <chr>
#> 1        01     金額  010800130       352 チョコレート         03
#> 2        01     金額  010800130       352 チョコレート         03
#> 3        01     金額  010800130       352 チョコレート         03
#> 4        01     金額  010800130       352 チョコレート         03
#> 5        01     金額  010800130       352 チョコレート         03
#> 6        01     金額  010800130       352 チョコレート         03
#> 7        01     金額  010800130       352 チョコレート         03
#> 8        01     金額  010800130       352 チョコレート         03
#> 9        01     金額  010800130       352 チョコレート         03
#> 10       01     金額  010800130       352 チョコレート         03
#> # ... with 13,510 more rows, and 7 more variables: 世帯区分 <chr>,
#> #   area_code <chr>, 地域区分 <chr>, time_code <chr>,
#> #   `時間軸（月次）` <chr>, unit <chr>, value <dbl>
…
